<?xml version="1.0" encoding="UTF-8"?>
<CustomTab xmlns="http://soap.sforce.com/2006/04/metadata">
    <label>Broker Bridge Update</label>
    <motif>Custom37: Bridge</motif>
    <page>SLID_BrokerMappingBatchExecution</page>
</CustomTab>
